Codes/Adders/32BitAdder.vcd
$date
	Wed Jul 31 11:17:50 2019
$end
$version
	Icarus Verilog
$end
$timescale
	1s
$end
$scope module top $end
$var wire 1 ! cout $end
$var wire 32 " sum [32:1] $end
$var reg 32 # a [32:1] $end
$var reg 32 $ b [32:1] $end
$var reg 1 % cin $end
$scope module BA32_0 $end
$var wire 32 & a [32:1] $end
$var wire 32 ' b [32:1] $end
$var wire 1 ( cin $end
$var wire 1 ! cout $end
$var wire 32 ) sum [32:1] $end
$var wire 1 * w1 $end
$scope module B16A_0 $end
$var wire 16 + a [16:1] $end
$var wire 16 , b [16:1] $end
$var wire 1 ( cin $end
$var wire 1 * cout $end
$var wire 16 - sum [16:1] $end
$var wire 1 . w1 $end
$var wire 1 / w2 $end
$var wire 1 0 w3 $end
$scope module B4A_0 $end
$var wire 4 1 a [4:1] $end
$var wire 4 2 b [4:1] $end
$var wire 1 ( cin $end
$var wire 1 . cout $end
$var wire 4 3 sum [4:1] $end
$var wire 1 4 w1 $end
$var wire 1 5 w2 $end
$var wire 1 6 w3 $end
$scope module FA_0 $end
$var wire 1 7 a $end
$var wire 1 8 b $end
$var wire 1 ( cin $end
$var wire 1 4 cout $end
$var wire 1 9 sum $end
$upscope $end
$scope module FA_1 $end
$var wire 1 : a $end
$var wire 1 ; b $end
$var wire 1 4 cin $end
$var wire 1 5 cout $end
$var wire 1 < sum $end
$upscope $end
$scope module FA_2 $end
$var wire 1 = a $end
$var wire 1 > b $end
$var wire 1 5 cin $end
$var wire 1 6 cout $end
$var wire 1 ? sum $end
$upscope $end
$scope module FA_3 $end
$var wire 1 @ a $end
$var wire 1 A b $end
$var wire 1 6 cin $end
$var wire 1 . cout $end
$var wire 1 B sum $end
$upscope $end
$upscope $end
$scope module B4A_1 $end
$var wire 4 C a [4:1] $end
$var wire 4 D b [4:1] $end
$var wire 1 . cin $end
$var wire 1 / cout $end
$var wire 4 E sum [4:1] $end
$var wire 1 F w1 $end
$var wire 1 G w2 $end
$var wire 1 H w3 $end
$scope module FA_0 $end
$var wire 1 I a $end
$var wire 1 J b $end
$var wire 1 . cin $end
$var wire 1 F cout $end
$var wire 1 K sum $end
$upscope $end
$scope module FA_1 $end
$var wire 1 L a $end
$var wire 1 M b $end
$var wire 1 F cin $end
$var wire 1 G cout $end
$var wire 1 N sum $end
$upscope $end
$scope module FA_2 $end
$var wire 1 O a $end
$var wire 1 P b $end
$var wire 1 G cin $end
$var wire 1 H cout $end
$var wire 1 Q sum $end
$upscope $end
$scope module FA_3 $end
$var wire 1 R a $end
$var wire 1 S b $end
$var wire 1 H cin $end
$var wire 1 / cout $end
$var wire 1 T sum $end
$upscope $end
$upscope $end
$scope module B4A_2 $end
$var wire 4 U a [4:1] $end
$var wire 4 V b [4:1] $end
$var wire 1 / cin $end
$var wire 1 0 cout $end
$var wire 4 W sum [4:1] $end
$var wire 1 X w1 $end
$var wire 1 Y w2 $end
$var wire 1 Z w3 $end
$scope module FA_0 $end
$var wire 1 [ a $end
$var wire 1 \ b $end
$var wire 1 / cin $end
$var wire 1 X cout $end
$var wire 1 ] sum $end
$upscope $end
$scope module FA_1 $end
$var wire 1 ^ a $end
$var wire 1 _ b $end
$var wire 1 X cin $end
$var wire 1 Y cout $end
$var wire 1 ` sum $end
$upscope $end
$scope module FA_2 $end
$var wire 1 a a $end
$var wire 1 b b $end
$var wire 1 Y cin $end
$var wire 1 Z cout $end
$var wire 1 c sum $end
$upscope $end
$scope module FA_3 $end
$var wire 1 d a $end
$var wire 1 e b $end
$var wire 1 Z cin $end
$var wire 1 0 cout $end
$var wire 1 f sum $end
$upscope $end
$upscope $end
$scope module B4A_3 $end
$var wire 4 g a [4:1] $end
$var wire 4 h b [4:1] $end
$var wire 1 0 cin $end
$var wire 1 * cout $end
$var wire 4 i sum [4:1] $end
$var wire 1 j w1 $end
$var wire 1 k w2 $end
$var wire 1 l w3 $end
$scope module FA_0 $end
$var wire 1 m a $end
$var wire 1 n b $end
$var wire 1 0 cin $end
$var wire 1 j cout $end
$var wire 1 o sum $end
$upscope $end
$scope module FA_1 $end
$var wire 1 p a $end
$var wire 1 q b $end
$var wire 1 j cin $end
$var wire 1 k cout $end
$var wire 1 r sum $end
$upscope $end
$scope module FA_2 $end
$var wire 1 s a $end
$var wire 1 t b $end
$var wire 1 k cin $end
$var wire 1 l cout $end
$var wire 1 u sum $end
$upscope $end
$scope module FA_3 $end
$var wire 1 v a $end
$var wire 1 w b $end
$var wire 1 l cin $end
$var wire 1 * cout $end
$var wire 1 x sum $end
$upscope $end
$upscope $end
$upscope $end
$scope module B16A_1 $end
$var wire 16 y a [16:1] $end
$var wire 16 z b [16:1] $end
$var wire 1 * cin $end
$var wire 1 ! cout $end
$var wire 16 { sum [16:1] $end
$var wire 1 | w1 $end
$var wire 1 } w2 $end
$var wire 1 ~ w3 $end
$scope module B4A_0 $end
$var wire 4 !" a [4:1] $end
$var wire 4 "" b [4:1] $end
$var wire 1 * cin $end
$var wire 1 | cout $end
$var wire 4 #" sum [4:1] $end
$var wire 1 $" w1 $end
$var wire 1 %" w2 $end
$var wire 1 &" w3 $end
$scope module FA_0 $end
$var wire 1 '" a $end
$var wire 1 (" b $end
$var wire 1 * cin $end
$var wire 1 $" cout $end
$var wire 1 )" sum $end
$upscope $end
$scope module FA_1 $end
$var wire 1 *" a $end
$var wire 1 +" b $end
$var wire 1 $" cin $end
$var wire 1 %" cout $end
$var wire 1 ," sum $end
$upscope $end
$scope module FA_2 $end
$var wire 1 -" a $end
$var wire 1 ." b $end
$var wire 1 %" cin $end
$var wire 1 &" cout $end
$var wire 1 /" sum $end
$upscope $end
$scope module FA_3 $end
$var wire 1 0" a $end
$var wire 1 1" b $end
$var wire 1 &" cin $end
$var wire 1 | cout $end
$var wire 1 2" sum $end
$upscope $end
$upscope $end
$scope module B4A_1 $end
$var wire 4 3" a [4:1] $end
$var wire 4 4" b [4:1] $end
$var wire 1 | cin $end
$var wire 1 } cout $end
$var wire 4 5" sum [4:1] $end
$var wire 1 6" w1 $end
$var wire 1 7" w2 $end
$var wire 1 8" w3 $end
$scope module FA_0 $end
$var wire 1 9" a $end
$var wire 1 :" b $end
$var wire 1 | cin $end
$var wire 1 6" cout $end
$var wire 1 ;" sum $end
$upscope $end
$scope module FA_1 $end
$var wire 1 <" a $end
$var wire 1 =" b $end
$var wire 1 6" cin $end
$var wire 1 7" cout $end
$var wire 1 >" sum $end
$upscope $end
$scope module FA_2 $end
$var wire 1 ?" a $end
$var wire 1 @" b $end
$var wire 1 7" cin $end
$var wire 1 8" cout $end
$var wire 1 A" sum $end
$upscope $end
$scope module FA_3 $end
$var wire 1 B" a $end
$var wire 1 C" b $end
$var wire 1 8" cin $end
$var wire 1 } cout $end
$var wire 1 D" sum $end
$upscope $end
$upscope $end
$scope module B4A_2 $end
$var wire 4 E" a [4:1] $end
$var wire 4 F" b [4:1] $end
$var wire 1 } cin $end
$var wire 1 ~ cout $end
$var wire 4 G" sum [4:1] $end
$var wire 1 H" w1 $end
$var wire 1 I" w2 $end
$var wire 1 J" w3 $end
$scope module FA_0 $end
$var wire 1 K" a $end
$var wire 1 L" b $end
$var wire 1 } cin $end
$var wire 1 H" cout $end
$var wire 1 M" sum $end
$upscope $end
$scope module FA_1 $end
$var wire 1 N" a $end
$var wire 1 O" b $end
$var wire 1 H" cin $end
$var wire 1 I" cout $end
$var wire 1 P" sum $end
$upscope $end
$scope module FA_2 $end
$var wire 1 Q" a $end
$var wire 1 R" b $end
$var wire 1 I" cin $end
$var wire 1 J" cout $end
$var wire 1 S" sum $end
$upscope $end
$scope module FA_3 $end
$var wire 1 T" a $end
$var wire 1 U" b $end
$var wire 1 J" cin $end
$var wire 1 ~ cout $end
$var wire 1 V" sum $end
$upscope $end
$upscope $end
$scope module B4A_3 $end
$var wire 4 W" a [4:1] $end
$var wire 4 X" b [4:1] $end
$var wire 1 ~ cin $end
$var wire 1 ! cout $end
$var wire 4 Y" sum [4:1] $end
$var wire 1 Z" w1 $end
$var wire 1 [" w2 $end
$var wire 1 \" w3 $end
$scope module FA_0 $end
$var wire 1 ]" a $end
$var wire 1 ^" b $end
$var wire 1 ~ cin $end
$var wire 1 Z" cout $end
$var wire 1 _" sum $end
$upscope $end
$scope module FA_1 $end
$var wire 1 `" a $end
$var wire 1 a" b $end
$var wire 1 Z" cin $end
$var wire 1 [" cout $end
$var wire 1 b" sum $end
$upscope $end
$scope module FA_2 $end
$var wire 1 c" a $end
$var wire 1 d" b $end
$var wire 1 [" cin $end
$var wire 1 \" cout $end
$var wire 1 e" sum $end
$upscope $end
$scope module FA_3 $end
$var wire 1 f" a $end
$var wire 1 g" b $end
$var wire 1 \" cin $end
$var wire 1 ! cout $end
$var wire 1 h" sum $end
$upscope $end
$upscope $end
$upscope $end
$upscope $end
$upscope $end
$enddefinitions $end
#0
$dumpvars
xh"
xg"
0f"
xe"
xd"
0c"
xb"
xa"
0`"
x_"
x^"
0]"
x\"
x["
xZ"
bx Y"
bx X"
b0 W"
xV"
xU"
0T"
xS"
xR"
0Q"
xP"
xO"
0N"
xM"
xL"
0K"
xJ"
xI"
xH"
bx G"
bx F"
b0 E"
xD"
xC"
0B"
xA"
x@"
0?"
x>"
x="
0<"
x;"
x:"
09"
x8"
x7"
x6"
bx 5"
bx 4"
b0 3"
x2"
x1"
00"
x/"
x."
0-"
x,"
x+"
0*"
x)"
x("
0'"
x&"
x%"
x$"
bx #"
bx ""
b0 !"
x~
x}
x|
bx {
bx z
b0 y
xx
xw
0v
xu
xt
0s
xr
xq
0p
xo
xn
0m
xl
xk
xj
bx i
bx h
b0 g
xf
xe
0d
xc
xb
0a
x`
x_
0^
x]
x\
0[
xZ
xY
xX
bx W
bx V
b0 U
xT
xS
0R
xQ
xP
0O
xN
xM
0L
xK
xJ
0I
xH
xG
xF
bx E
bx D
b0 C
xB
xA
0@
x?
x>
0=
x<
x;
0:
x9
x8
07
x6
x5
x4
bx 3
bx 2
b0 1
x0
x/
x.
bx -
bx ,
b0 +
x*
bx )
x(
bx '
b0 &
x%
bx $
b0 #
bx "
x!
$end
#10
0<
0?
0B
b0x 3
0K
0N
0Q
0T
b0 E
0]
0`
0c
0f
b0 W
0o
0r
0u
0x
b0x -
b0 i
0)"
0,"
0/"
02"
b0 #"
0;"
0>"
0A"
0D"
b0 5"
0M"
0P"
0S"
0V"
b0 G"
0_"
0b"
0e"
0h"
b0x "
b0x )
b0 {
b0 Y"
04
05
06
0.
0F
0G
0H
0/
0X
0Y
0Z
00
0j
0k
0l
0*
0$"
0%"
0&"
0|
06"
07"
08"
0}
0H"
0I"
0J"
0~
0Z"
0["
0\"
0!
08
0;
0>
0A
0J
0M
0P
0S
0\
0_
0b
0e
0n
0q
0t
0w
0("
0+"
0."
01"
0:"
0="
0@"
0C"
0L"
0O"
0R"
0U"
0^"
0a"
0d"
0g"
b0 2
b0 D
b0 V
b0 h
b0 ""
b0 4"
b0 F"
b0 X"
b0 ,
b0 z
b0 $
b0 '
#20
09
b0 "
b0 )
b0 -
b0 3
0%
0(
#30
1,"
1$"
1*
1l
1k
1<
1_"
14
1j
1~
1c
1K
b1 E
0u
0x
0)"
b10 #"
1M"
1P"
b11 G"
1]
b101 W
1Y
10
0r
b0 i
1>"
b10 5"
1J"
1b"
1h"
b1011001100100010 {
b1011 Y"
18
1J
1_
1e
1n
1t
1w
1("
1L"
1O"
1R"
1U"
1[
1^
1d
1p
1<"
1Q"
1`"
1f"
b1 2
b1 D
b1010 V
b1101 h
b1 ""
b1111 F"
b1011 U
b10 g
b10 3"
b100 E"
b1010 W"
09
b10110011001000100000010100010010 "
b10110011001000100000010100010010 )
b10100010010 -
b10 3
b1101101000010001 ,
b111100000001 z
b10101100000000 +
b1010010000100000 y
1%
1(
b1111000000011101101000010001 $
b1111000000011101101000010001 '
b10100100001000000010101100000000 #
b10100100001000000010101100000000 &
#40
0e"
0["
0,"
0j
1b"
0l
0*
0$"
0~
0c
1o
0k
0Z"
0u
0x
0)"
1/"
b100 #"
1D"
0P"
1S"
0J"
0V"
b101 G"
0]
b0 W
0Y
00
0r
b1 i
1;"
1A"
b1111 5"
1_"
0h"
b11010111110100 {
b11 Y"
0<
0_
0e
0n
0t
0w
0("
1."
1="
1C"
0O"
0R"
0U"
0[
0^
0d
1m
0p
19"
0<"
1?"
1]"
0f"
04
b0 V
b0 h
b100 ""
b1010 4"
b1 F"
b0 U
b1 g
b101 3"
b11 W"
19
b110101111101000001000000010001 "
b110101111101000001000000010001 )
b1000000010001 -
b1 3
b10001 ,
b110100100 z
b1000000000000 +
b11010001010000 y
0%
0(
b1101001000000000000010001 $
b1101001000000000000010001 '
b110100010100000001000000000000 #
b110100010100000001000000000000 &
#50
09
b0 3
0K
b0 E
0/"
0>"
0D"
0_"
1Z"
1u
1x
b1101000000000000 -
b1101 i
1)"
1,"
b11 #"
0A"
b1 5"
0S"
b1 G"
1b"
b100001000100111101000000000000 "
b100001000100111101000000000000 )
b10000100010011 {
b10 Y"
08
0J
0."
0="
0C"
1^"
1s
1v
1'"
1*"
0?"
0Q"
0`"
b0 2
b0 D
b0 ""
b0 4"
b1 X"
b1101 g
b11 !"
b1 3"
b0 E"
b1 W"
b0 ,
b1000100000000 z
b1101000000000000 +
b1000000010011 y
b10001000000000000000000000000 $
b10001000000000000000000000000 '
b10000000100111101000000000000 #
b10000000100111101000000000000 &
#60
1*
0x
1l
1>"
0b"
0u
b1 i
1P"
1]
12"
0;"
b10 5"
16"
1_"
b1 Y"
0Z"
1N
1T
b1010 E
1`
1f
b1011 W
1k
1)"
0,"
b1001 #"
0M"
b1001000101001 {
b10 G"
1H"
1\
1n
1q
1t
11"
1:"
0^"
1L
1R
1^
1d
0m
1p
0s
0'"
0*"
1K"
b1 V
b111 h
b1000 ""
b1 4"
b0 X"
b1010 C
b1010 U
b1010 g
b0 !"
b1 E"
19
b10010001010010001101110100001 "
b10010001010010001101110100001 )
b1101110100001 -
b1 3
b111000100000000 ,
b100011000 z
b1010101010100000 +
b1000100010000 y
1%
1(
b1000110000111000100000000 $
b1000110000111000100000000 '
b10001000100001010101010100000 #
b10001000100001010101010100000 &
#70
0)"
0l
0P"
0*
1,"
02"
b10 #"
1M"
b1 G"
0H"
1K
0N
0T
b1 E
0`
0f
b1 W
0k
0x
b1 i
1$"
0_"
b100100010 {
b0 Y"
0\
0n
0q
0t
1("
01"
0L"
17
1I
0L
0R
1[
0^
0d
1m
0p
0v
1'"
0]"
b0 V
b0 h
b1 ""
b0 F"
b1 1
b1 C
b1 U
b1 g
b1 !"
b0 W"
19
b1001000100001000100010001 "
b1001000100001000100010001 )
b1000100010001 -
b1 3
b0 ,
b10001 z
b1000100010001 +
b100010001 y
0%
0(
b100010000000000000000 $
b100010000000000000000 '
b1000100010001000100010001 #
b1000100010001000100010001 &
#80
0A"
0,"
1/"
07"
1u
0o
b100 i
1)"
0$"
1%"
12"
b1101 #"
1;"
06"
1>"
1D"
b1011 5"
1P"
1V"
b101110111101 {
b1011 G"
0<
1t
1+"
1L"
07
0m
0'"
1*"
10"
09"
1<"
1B"
0K"
1N"
1T"
04
b100 h
b11 ""
b1 F"
b0 1
b0 g
b1010 !"
b1010 3"
b1010 E"
19
b1011101111010100000100010001 "
b1011101111010100000100010001 )
b100000100010001 -
b1 3
b100000000000000 ,
b100010011 z
b100010000 +
b101010101010 y
1%
1(
b1000100110100000000000000 $
b1000100110100000000000000 '
b1010101010100000000100010000 #
b1010101010100000000100010000 &
#90
1!
1\"
1["
1`
1,"
1f
1Z"
1X
1$"
1N
1Z
1A"
1S"
1<
1?
1B
b1111 3
1Q
1T
b1111 E
0]
b1010 W
1o
1r
1x
0)"
1&"
1F
12"
1|
17"
1}
1I"
1~
0_"
0b"
0e"
0h"
b0 Y"
14
15
16
1.
1G
1H
1/
1Y
10
1j
1k
1u
b1111101011111111 -
b1111 i
1l
1*
0/"
b1010 #"
1;"
b1111 5"
16"
18"
1M"
b1111111110101111101011111111 "
b1111111110101111101011111111 )
b111111111010 {
b1111 G"
1H"
1J"
18
1;
1>
1A
1J
1M
1P
1S
1\
1_
1b
1e
1n
1q
1w
0("
11"
1="
1@"
1C"
1O"
1R"
1U"
1^"
1a"
1d"
1g"
17
1:
1=
1@
1L
1O
1R
0[
1^
1d
1m
1p
1s
1v
1'"
1-"
19"
1?"
1K"
1Q"
b1111 2
b1111 D
b1111 V
b1111 h
b1010 ""
b1111 4"
b1111 F"
b1111 X"
b1111 1
b1111 C
b1010 U
b1111 g
b1111 !"
b1111 3"
b1111 E"
b1111111111111111 ,
b1111111111111010 z
b1111101011111111 +
b111111111111 y
b11111111111110101111111111111111 $
b11111111111110101111111111111111 '
b1111111111111111101011111111 #
b1111111111111111101011111111 &
