WallaceMultiplier/WallaceMultiplier_tb.vcd
$date
	Fri Sep 13 10:18:46 2019
$end
$version
	Icarus Verilog
$end
$timescale
	1s
$end
$scope module WallaceMultiplier_tb $end
$var wire 18 ! prod [18:1] $end
$var reg 8 " A [8:1] $end
$var reg 8 # B [8:1] $end
$scope module WallaceMultiplier_ $end
$var wire 8 $ A [8:1] $end
$var wire 8 % B [8:1] $end
$var wire 1 & s59 $end
$var wire 1 ' s58 $end
$var wire 1 ( s57 $end
$var wire 1 ) s56 $end
$var wire 1 * s55 $end
$var wire 1 + s54 $end
$var wire 1 , s53 $end
$var wire 1 - s52 $end
$var wire 1 . s512 $end
$var wire 1 / s511 $end
$var wire 1 0 s510 $end
$var wire 1 1 s51 $end
$var wire 1 2 s49 $end
$var wire 1 3 s48 $end
$var wire 1 4 s47 $end
$var wire 1 5 s46 $end
$var wire 1 6 s45 $end
$var wire 1 7 s44 $end
$var wire 1 8 s43 $end
$var wire 1 9 s42 $end
$var wire 1 : s412 $end
$var wire 1 ; s411 $end
$var wire 1 < s410 $end
$var wire 1 = s41 $end
$var wire 1 > s39 $end
$var wire 1 ? s38 $end
$var wire 1 @ s37 $end
$var wire 1 A s36 $end
$var wire 1 B s35 $end
$var wire 1 C s34 $end
$var wire 1 D s33 $end
$var wire 1 E s32 $end
$var wire 1 F s312 $end
$var wire 1 G s311 $end
$var wire 1 H s310 $end
$var wire 1 I s31 $end
$var wire 1 J s29 $end
$var wire 1 K s28 $end
$var wire 1 L s27 $end
$var wire 1 M s26 $end
$var wire 1 N s25 $end
$var wire 1 O s24 $end
$var wire 1 P s23 $end
$var wire 1 Q s22 $end
$var wire 1 R s216 $end
$var wire 1 S s215 $end
$var wire 1 T s214 $end
$var wire 1 U s213 $end
$var wire 1 V s212 $end
$var wire 1 W s211 $end
$var wire 1 X s210 $end
$var wire 1 Y s21 $end
$var wire 1 Z s19 $end
$var wire 1 [ s18 $end
$var wire 1 \ s17 $end
$var wire 1 ] s16 $end
$var wire 1 ^ s15 $end
$var wire 1 _ s14 $end
$var wire 1 ` s13 $end
$var wire 1 a s121 $end
$var wire 1 b s120 $end
$var wire 1 c s12 $end
$var wire 1 d s119 $end
$var wire 1 e s118 $end
$var wire 1 f s117 $end
$var wire 1 g s116 $end
$var wire 1 h s115 $end
$var wire 1 i s114 $end
$var wire 1 j s113 $end
$var wire 1 k s112 $end
$var wire 1 l s111 $end
$var wire 1 m s110 $end
$var wire 1 n s11 $end
$var wire 18 o prod [18:1] $end
$var wire 8 p p8 [8:1] $end
$var wire 8 q p7 [8:1] $end
$var wire 8 r p6 [8:1] $end
$var wire 8 s p5 [8:1] $end
$var wire 8 t p4 [8:1] $end
$var wire 8 u p3 [8:1] $end
$var wire 8 v p2 [8:1] $end
$var wire 8 w p1 [8:1] $end
$var wire 1 x c59 $end
$var wire 1 y c58 $end
$var wire 1 z c57 $end
$var wire 1 { c56 $end
$var wire 1 | c55 $end
$var wire 1 } c54 $end
$var wire 1 ~ c53 $end
$var wire 1 !" c52 $end
$var wire 1 "" c512 $end
$var wire 1 #" c511 $end
$var wire 1 $" c510 $end
$var wire 1 %" c51 $end
$var wire 1 &" c49 $end
$var wire 1 '" c48 $end
$var wire 1 (" c47 $end
$var wire 1 )" c46 $end
$var wire 1 *" c45 $end
$var wire 1 +" c44 $end
$var wire 1 ," c43 $end
$var wire 1 -" c42 $end
$var wire 1 ." c412 $end
$var wire 1 /" c411 $end
$var wire 1 0" c410 $end
$var wire 1 1" c41 $end
$var wire 1 2" c39 $end
$var wire 1 3" c38 $end
$var wire 1 4" c37 $end
$var wire 1 5" c36 $end
$var wire 1 6" c35 $end
$var wire 1 7" c34 $end
$var wire 1 8" c33 $end
$var wire 1 9" c32 $end
$var wire 1 :" c312 $end
$var wire 1 ;" c311 $end
$var wire 1 <" c310 $end
$var wire 1 =" c31 $end
$var wire 1 >" c29 $end
$var wire 1 ?" c28 $end
$var wire 1 @" c27 $end
$var wire 1 A" c26 $end
$var wire 1 B" c25 $end
$var wire 1 C" c24 $end
$var wire 1 D" c23 $end
$var wire 1 E" c22 $end
$var wire 1 F" c216 $end
$var wire 1 G" c215 $end
$var wire 1 H" c214 $end
$var wire 1 I" c213 $end
$var wire 1 J" c212 $end
$var wire 1 K" c211 $end
$var wire 1 L" c210 $end
$var wire 1 M" c21 $end
$var wire 1 N" c19 $end
$var wire 1 O" c18 $end
$var wire 1 P" c17 $end
$var wire 1 Q" c16 $end
$var wire 1 R" c15 $end
$var wire 1 S" c14 $end
$var wire 1 T" c13 $end
$var wire 1 U" c121 $end
$var wire 1 V" c120 $end
$var wire 1 W" c12 $end
$var wire 1 X" c119 $end
$var wire 1 Y" c118 $end
$var wire 1 Z" c117 $end
$var wire 1 [" c116 $end
$var wire 1 \" c115 $end
$var wire 1 ]" c114 $end
$var wire 1 ^" c113 $end
$var wire 1 _" c112 $end
$var wire 1 `" c111 $end
$var wire 1 a" c110 $end
$var wire 1 b" c11 $end
$scope module ba1 $end
$var wire 8 c" A [8:1] $end
$var wire 1 d" B $end
$var wire 8 e" p [8:1] $end
$upscope $end
$scope module ba2 $end
$var wire 8 f" A [8:1] $end
$var wire 1 g" B $end
$var wire 8 h" p [8:1] $end
$upscope $end
$scope module ba3 $end
$var wire 8 i" A [8:1] $end
$var wire 1 j" B $end
$var wire 8 k" p [8:1] $end
$upscope $end
$scope module ba4 $end
$var wire 8 l" A [8:1] $end
$var wire 1 m" B $end
$var wire 8 n" p [8:1] $end
$upscope $end
$scope module ba5 $end
$var wire 8 o" A [8:1] $end
$var wire 1 p" B $end
$var wire 8 q" p [8:1] $end
$upscope $end
$scope module ba6 $end
$var wire 8 r" A [8:1] $end
$var wire 1 s" B $end
$var wire 8 t" p [8:1] $end
$upscope $end
$scope module ba7 $end
$var wire 8 u" A [8:1] $end
$var wire 1 v" B $end
$var wire 8 w" p [8:1] $end
$upscope $end
$scope module ba8 $end
$var wire 8 x" A [8:1] $end
$var wire 1 y" B $end
$var wire 8 z" p [8:1] $end
$upscope $end
$scope module fa110 $end
$var wire 1 {" a $end
$var wire 1 |" b $end
$var wire 1 }" cin $end
$var wire 1 Z" cout $end
$var wire 1 f sum $end
$upscope $end
$scope module fa111 $end
$var wire 1 ~" a $end
$var wire 1 !# b $end
$var wire 1 "# cin $end
$var wire 1 X" cout $end
$var wire 1 d sum $end
$upscope $end
$scope module fa112 $end
$var wire 1 ## a $end
$var wire 1 $# b $end
$var wire 1 %# cin $end
$var wire 1 V" cout $end
$var wire 1 b sum $end
$upscope $end
$scope module fa12 $end
$var wire 1 &# a $end
$var wire 1 '# b $end
$var wire 1 (# cin $end
$var wire 1 W" cout $end
$var wire 1 c sum $end
$upscope $end
$scope module fa13 $end
$var wire 1 )# a $end
$var wire 1 *# b $end
$var wire 1 +# cin $end
$var wire 1 T" cout $end
$var wire 1 ` sum $end
$upscope $end
$scope module fa14 $end
$var wire 1 ,# a $end
$var wire 1 -# b $end
$var wire 1 .# cin $end
$var wire 1 S" cout $end
$var wire 1 _ sum $end
$upscope $end
$scope module fa151 $end
$var wire 1 /# a $end
$var wire 1 0# b $end
$var wire 1 1# cin $end
$var wire 1 Q" cout $end
$var wire 1 ] sum $end
$upscope $end
$scope module fa152 $end
$var wire 1 2# a $end
$var wire 1 3# b $end
$var wire 1 4# cin $end
$var wire 1 P" cout $end
$var wire 1 \ sum $end
$upscope $end
$scope module fa161 $end
$var wire 1 5# a $end
$var wire 1 6# b $end
$var wire 1 7# cin $end
$var wire 1 O" cout $end
$var wire 1 [ sum $end
$upscope $end
$scope module fa162 $end
$var wire 1 8# a $end
$var wire 1 9# b $end
$var wire 1 :# cin $end
$var wire 1 N" cout $end
$var wire 1 Z sum $end
$upscope $end
$scope module fa171 $end
$var wire 1 ;# a $end
$var wire 1 <# b $end
$var wire 1 =# cin $end
$var wire 1 a" cout $end
$var wire 1 m sum $end
$upscope $end
$scope module fa172 $end
$var wire 1 ># a $end
$var wire 1 ?# b $end
$var wire 1 @# cin $end
$var wire 1 `" cout $end
$var wire 1 l sum $end
$upscope $end
$scope module fa181 $end
$var wire 1 A# a $end
$var wire 1 B# b $end
$var wire 1 C# cin $end
$var wire 1 ^" cout $end
$var wire 1 j sum $end
$upscope $end
$scope module fa182 $end
$var wire 1 D# a $end
$var wire 1 E# b $end
$var wire 1 F# cin $end
$var wire 1 ]" cout $end
$var wire 1 i sum $end
$upscope $end
$scope module fa191 $end
$var wire 1 G# a $end
$var wire 1 H# b $end
$var wire 1 I# cin $end
$var wire 1 \" cout $end
$var wire 1 h sum $end
$upscope $end
$scope module fa192 $end
$var wire 1 J# a $end
$var wire 1 K# b $end
$var wire 1 L# cin $end
$var wire 1 [" cout $end
$var wire 1 g sum $end
$upscope $end
$scope module fa210 $end
$var wire 1 Z" a $end
$var wire 1 d cin $end
$var wire 1 I" cout $end
$var wire 1 U sum $end
$var wire 1 Y" b $end
$upscope $end
$scope module fa22 $end
$var wire 1 W" a $end
$var wire 1 ` b $end
$var wire 1 M# cin $end
$var wire 1 E" cout $end
$var wire 1 Q sum $end
$upscope $end
$scope module fa23 $end
$var wire 1 T" a $end
$var wire 1 _ b $end
$var wire 1 D" cout $end
$var wire 1 P sum $end
$var wire 1 ^ cin $end
$upscope $end
$scope module fa24 $end
$var wire 1 S" a $end
$var wire 1 ] cin $end
$var wire 1 C" cout $end
$var wire 1 O sum $end
$var wire 1 R" b $end
$upscope $end
$scope module fa25 $end
$var wire 1 Q" a $end
$var wire 1 P" b $end
$var wire 1 [ cin $end
$var wire 1 B" cout $end
$var wire 1 N sum $end
$upscope $end
$scope module fa26 $end
$var wire 1 O" a $end
$var wire 1 N" b $end
$var wire 1 m cin $end
$var wire 1 @" cout $end
$var wire 1 L sum $end
$upscope $end
$scope module fa271 $end
$var wire 1 a" a $end
$var wire 1 `" b $end
$var wire 1 >" cout $end
$var wire 1 J sum $end
$var wire 1 _" cin $end
$upscope $end
$scope module fa272 $end
$var wire 1 j a $end
$var wire 1 i b $end
$var wire 1 N# cin $end
$var wire 1 L" cout $end
$var wire 1 X sum $end
$upscope $end
$scope module fa28 $end
$var wire 1 ^" a $end
$var wire 1 ]" b $end
$var wire 1 h cin $end
$var wire 1 K" cout $end
$var wire 1 W sum $end
$upscope $end
$scope module fa29 $end
$var wire 1 \" a $end
$var wire 1 [" b $end
$var wire 1 f cin $end
$var wire 1 J" cout $end
$var wire 1 V sum $end
$upscope $end
$scope module fa33 $end
$var wire 1 D" a $end
$var wire 1 O b $end
$var wire 1 \ cin $end
$var wire 1 8" cout $end
$var wire 1 D sum $end
$upscope $end
$scope module fa34 $end
$var wire 1 C" a $end
$var wire 1 N b $end
$var wire 1 7" cout $end
$var wire 1 C sum $end
$var wire 1 M cin $end
$upscope $end
$scope module fa35 $end
$var wire 1 B" a $end
$var wire 1 L cin $end
$var wire 1 6" cout $end
$var wire 1 B sum $end
$var wire 1 A" b $end
$upscope $end
$scope module fa36 $end
$var wire 1 @" a $end
$var wire 1 J cin $end
$var wire 1 5" cout $end
$var wire 1 A sum $end
$var wire 1 ?" b $end
$upscope $end
$scope module fa37 $end
$var wire 1 >" a $end
$var wire 1 L" b $end
$var wire 1 W cin $end
$var wire 1 4" cout $end
$var wire 1 @ sum $end
$upscope $end
$scope module fa38 $end
$var wire 1 K" a $end
$var wire 1 V b $end
$var wire 1 3" cout $end
$var wire 1 ? sum $end
$var wire 1 e cin $end
$upscope $end
$scope module fa39 $end
$var wire 1 J" a $end
$var wire 1 U b $end
$var wire 1 O# cin $end
$var wire 1 2" cout $end
$var wire 1 > sum $end
$upscope $end
$scope module fa44 $end
$var wire 1 7" a $end
$var wire 1 B b $end
$var wire 1 +" cout $end
$var wire 1 7 sum $end
$var wire 1 K cin $end
$upscope $end
$scope module fa45 $end
$var wire 1 6" a $end
$var wire 1 A b $end
$var wire 1 X cin $end
$var wire 1 *" cout $end
$var wire 1 6 sum $end
$upscope $end
$scope module fa46 $end
$var wire 1 5" a $end
$var wire 1 @ b $end
$var wire 1 g cin $end
$var wire 1 )" cout $end
$var wire 1 5 sum $end
$upscope $end
$scope module fa510 $end
$var wire 1 $" cout $end
$var wire 1 0 sum $end
$var wire 1 ; cin $end
$var wire 1 0" b $end
$var wire 1 x a $end
$upscope $end
$scope module fa511 $end
$var wire 1 $" a $end
$var wire 1 #" cout $end
$var wire 1 / sum $end
$var wire 1 : cin $end
$var wire 1 /" b $end
$upscope $end
$scope module fa52 $end
$var wire 1 !" cout $end
$var wire 1 - sum $end
$var wire 1 8 cin $end
$var wire 1 -" b $end
$var wire 1 %" a $end
$upscope $end
$scope module fa53 $end
$var wire 1 !" a $end
$var wire 1 7 cin $end
$var wire 1 ~ cout $end
$var wire 1 , sum $end
$var wire 1 ," b $end
$upscope $end
$scope module fa54 $end
$var wire 1 ~ a $end
$var wire 1 +" b $end
$var wire 1 6 cin $end
$var wire 1 } cout $end
$var wire 1 + sum $end
$upscope $end
$scope module fa55 $end
$var wire 1 } a $end
$var wire 1 *" b $end
$var wire 1 5 cin $end
$var wire 1 | cout $end
$var wire 1 * sum $end
$upscope $end
$scope module fa56 $end
$var wire 1 | a $end
$var wire 1 )" b $end
$var wire 1 { cout $end
$var wire 1 ) sum $end
$var wire 1 4 cin $end
$upscope $end
$scope module fa57 $end
$var wire 1 { a $end
$var wire 1 z cout $end
$var wire 1 ( sum $end
$var wire 1 3 cin $end
$var wire 1 (" b $end
$upscope $end
$scope module fa58 $end
$var wire 1 z a $end
$var wire 1 y cout $end
$var wire 1 ' sum $end
$var wire 1 2 cin $end
$var wire 1 '" b $end
$upscope $end
$scope module fa59 $end
$var wire 1 y a $end
$var wire 1 x cout $end
$var wire 1 & sum $end
$var wire 1 < cin $end
$var wire 1 &" b $end
$upscope $end
$scope module ha11 $end
$var wire 1 P# a $end
$var wire 1 Q# b $end
$var wire 1 b" ca $end
$var wire 1 n sum $end
$upscope $end
$scope module ha110 $end
$var wire 1 R# a $end
$var wire 1 S# b $end
$var wire 1 Y" ca $end
$var wire 1 e sum $end
$upscope $end
$scope module ha113 $end
$var wire 1 T# a $end
$var wire 1 U# b $end
$var wire 1 U" ca $end
$var wire 1 a sum $end
$upscope $end
$scope module ha14 $end
$var wire 1 V# a $end
$var wire 1 W# b $end
$var wire 1 R" ca $end
$var wire 1 ^ sum $end
$upscope $end
$scope module ha17 $end
$var wire 1 X# a $end
$var wire 1 Y# b $end
$var wire 1 _" ca $end
$var wire 1 k sum $end
$upscope $end
$scope module ha21 $end
$var wire 1 b" a $end
$var wire 1 c b $end
$var wire 1 M" ca $end
$var wire 1 Y sum $end
$upscope $end
$scope module ha211 $end
$var wire 1 X" a $end
$var wire 1 b b $end
$var wire 1 H" ca $end
$var wire 1 T sum $end
$upscope $end
$scope module ha212 $end
$var wire 1 V" a $end
$var wire 1 a b $end
$var wire 1 G" ca $end
$var wire 1 S sum $end
$upscope $end
$scope module ha213 $end
$var wire 1 U" a $end
$var wire 1 Z# b $end
$var wire 1 F" ca $end
$var wire 1 R sum $end
$upscope $end
$scope module ha25 $end
$var wire 1 Z a $end
$var wire 1 [# b $end
$var wire 1 A" ca $end
$var wire 1 M sum $end
$upscope $end
$scope module ha26 $end
$var wire 1 l a $end
$var wire 1 k b $end
$var wire 1 ?" ca $end
$var wire 1 K sum $end
$upscope $end
$scope module ha31 $end
$var wire 1 M" a $end
$var wire 1 Q b $end
$var wire 1 =" ca $end
$var wire 1 I sum $end
$upscope $end
$scope module ha310 $end
$var wire 1 I" a $end
$var wire 1 T b $end
$var wire 1 <" ca $end
$var wire 1 H sum $end
$upscope $end
$scope module ha311 $end
$var wire 1 H" a $end
$var wire 1 S b $end
$var wire 1 ;" ca $end
$var wire 1 G sum $end
$upscope $end
$scope module ha312 $end
$var wire 1 G" a $end
$var wire 1 R b $end
$var wire 1 :" ca $end
$var wire 1 F sum $end
$upscope $end
$scope module ha32 $end
$var wire 1 E" a $end
$var wire 1 P b $end
$var wire 1 9" ca $end
$var wire 1 E sum $end
$upscope $end
$scope module ha41 $end
$var wire 1 =" a $end
$var wire 1 E b $end
$var wire 1 1" ca $end
$var wire 1 = sum $end
$upscope $end
$scope module ha410 $end
$var wire 1 <" a $end
$var wire 1 G b $end
$var wire 1 0" ca $end
$var wire 1 < sum $end
$upscope $end
$scope module ha411 $end
$var wire 1 ;" a $end
$var wire 1 F b $end
$var wire 1 /" ca $end
$var wire 1 ; sum $end
$upscope $end
$scope module ha412 $end
$var wire 1 :" a $end
$var wire 1 F" b $end
$var wire 1 ." ca $end
$var wire 1 : sum $end
$upscope $end
$scope module ha42 $end
$var wire 1 9" a $end
$var wire 1 D b $end
$var wire 1 -" ca $end
$var wire 1 9 sum $end
$upscope $end
$scope module ha43 $end
$var wire 1 8" a $end
$var wire 1 C b $end
$var wire 1 ," ca $end
$var wire 1 8 sum $end
$upscope $end
$scope module ha47 $end
$var wire 1 4" a $end
$var wire 1 ? b $end
$var wire 1 (" ca $end
$var wire 1 4 sum $end
$upscope $end
$scope module ha48 $end
$var wire 1 3" a $end
$var wire 1 > b $end
$var wire 1 '" ca $end
$var wire 1 3 sum $end
$upscope $end
$scope module ha49 $end
$var wire 1 2" a $end
$var wire 1 H b $end
$var wire 1 &" ca $end
$var wire 1 2 sum $end
$upscope $end
$scope module ha51 $end
$var wire 1 1" a $end
$var wire 1 9 b $end
$var wire 1 %" ca $end
$var wire 1 1 sum $end
$upscope $end
$scope module ha512 $end
$var wire 1 #" a $end
$var wire 1 ." b $end
$var wire 1 "" ca $end
$var wire 1 . sum $end
$upscope $end
$upscope $end
$upscope $end
$enddefinitions $end
#0
$dumpvars
0[#
0Z#
0Y#
0X#
0W#
0V#
0U#
0T#
0S#
0R#
0Q#
0P#
0O#
0N#
0M#
0L#
0K#
0J#
0I#
0H#
0G#
0F#
0E#
0D#
0C#
0B#
0A#
0@#
0?#
0>#
0=#
0<#
0;#
0:#
09#
08#
07#
06#
05#
04#
03#
02#
01#
00#
0/#
0.#
0-#
0,#
0+#
0*#
0)#
0(#
0'#
0&#
0%#
0$#
0##
0"#
0!#
0~"
0}"
0|"
0{"
b0 z"
0y"
b0 x"
b0 w"
0v"
b0 u"
b0 t"
0s"
b0 r"
b0 q"
0p"
b0 o"
b0 n"
0m"
b0 l"
b0 k"
0j"
b0 i"
b0 h"
0g"
b0 f"
b0 e"
0d"
b0 c"
0b"
0a"
0`"
0_"
0^"
0]"
0\"
0["
0Z"
0Y"
0X"
0W"
0V"
0U"
0T"
0S"
0R"
0Q"
0P"
0O"
0N"
0M"
0L"
0K"
0J"
0I"
0H"
0G"
0F"
0E"
0D"
0C"
0B"
0A"
0@"
0?"
0>"
0="
0<"
0;"
0:"
09"
08"
07"
06"
05"
04"
03"
02"
01"
00"
0/"
0."
0-"
0,"
0+"
0*"
0)"
0("
0'"
0&"
0%"
0$"
0#"
0""
0!"
0~
0}
0|
0{
0z
0y
0x
b0 w
b0 v
b0 u
b0 t
b0 s
b0 r
b0 q
b0 p
b0 o
0n
0m
0l
0k
0j
0i
0h
0g
0f
0e
0d
0c
0b
0a
0`
0_
0^
0]
0\
0[
0Z
0Y
0X
0W
0V
0U
0T
0S
0R
0Q
0P
0O
0N
0M
0L
0K
0J
0I
0H
0G
0F
0E
0D
0C
0B
0A
0@
0?
0>
0=
0<
0;
0:
09
08
07
06
05
04
03
02
01
00
0/
0.
0-
0,
0+
0*
0)
0(
0'
0&
b0 %
b0 $
b0 #
b0 "
b0 !
$end
#10
b10000000 "
b10000000 $
b10000000 c"
b10000000 f"
b10000000 i"
b10000000 l"
b10000000 o"
b10000000 r"
b10000000 u"
b10000000 x"
#20
b1000000 "
b1000000 $
b1000000 c"
b1000000 f"
b1000000 i"
b1000000 l"
b1000000 o"
b1000000 r"
b1000000 u"
b1000000 x"
#30
b11000000 "
b11000000 $
b11000000 c"
b11000000 f"
b11000000 i"
b11000000 l"
b11000000 o"
b11000000 r"
b11000000 u"
b11000000 x"
#40
b100000 "
b100000 $
b100000 c"
b100000 f"
b100000 i"
b100000 l"
b100000 o"
b100000 r"
b100000 u"
b100000 x"
#50
b10100000 "
b10100000 $
b10100000 c"
b10100000 f"
b10100000 i"
b10100000 l"
b10100000 o"
b10100000 r"
b10100000 u"
b10100000 x"
#60
b1100000 "
b1100000 $
b1100000 c"
b1100000 f"
b1100000 i"
b1100000 l"
b1100000 o"
b1100000 r"
b1100000 u"
b1100000 x"
#70
b11100000 "
b11100000 $
b11100000 c"
b11100000 f"
b11100000 i"
b11100000 l"
b11100000 o"
b11100000 r"
b11100000 u"
b11100000 x"
#80
b10000 "
b10000 $
b10000 c"
b10000 f"
b10000 i"
b10000 l"
b10000 o"
b10000 r"
b10000 u"
b10000 x"
#90
b10010000 "
b10010000 $
b10010000 c"
b10010000 f"
b10010000 i"
b10010000 l"
b10010000 o"
b10010000 r"
b10010000 u"
b10010000 x"
#100
b1010000 "
b1010000 $
b1010000 c"
b1010000 f"
b1010000 i"
b1010000 l"
b1010000 o"
b1010000 r"
b1010000 u"
b1010000 x"
#110
b11010000 "
b11010000 $
b11010000 c"
b11010000 f"
b11010000 i"
b11010000 l"
b11010000 o"
b11010000 r"
b11010000 u"
b11010000 x"
#120
b110000 "
b110000 $
b110000 c"
b110000 f"
b110000 i"
b110000 l"
b110000 o"
b110000 r"
b110000 u"
b110000 x"
#130
b10110000 "
b10110000 $
b10110000 c"
b10110000 f"
b10110000 i"
b10110000 l"
b10110000 o"
b10110000 r"
b10110000 u"
b10110000 x"
#140
b1110000 "
b1110000 $
b1110000 c"
b1110000 f"
b1110000 i"
b1110000 l"
b1110000 o"
b1110000 r"
b1110000 u"
b1110000 x"
#150
b11110000 "
b11110000 $
b11110000 c"
b11110000 f"
b11110000 i"
b11110000 l"
b11110000 o"
b11110000 r"
b11110000 u"
b11110000 x"
#160
b1000 "
b1000 $
b1000 c"
b1000 f"
b1000 i"
b1000 l"
b1000 o"
b1000 r"
b1000 u"
b1000 x"
#170
b10001000 "
b10001000 $
b10001000 c"
b10001000 f"
b10001000 i"
b10001000 l"
b10001000 o"
b10001000 r"
b10001000 u"
b10001000 x"
#180
b1001000 "
b1001000 $
b1001000 c"
b1001000 f"
b1001000 i"
b1001000 l"
b1001000 o"
b1001000 r"
b1001000 u"
b1001000 x"
#190
b11001000 "
b11001000 $
b11001000 c"
b11001000 f"
b11001000 i"
b11001000 l"
b11001000 o"
b11001000 r"
b11001000 u"
b11001000 x"
#200
b101000 "
b101000 $
b101000 c"
b101000 f"
b101000 i"
b101000 l"
b101000 o"
b101000 r"
b101000 u"
b101000 x"
#210
b10101000 "
b10101000 $
b10101000 c"
b10101000 f"
b10101000 i"
b10101000 l"
b10101000 o"
b10101000 r"
b10101000 u"
b10101000 x"
#220
b1101000 "
b1101000 $
b1101000 c"
b1101000 f"
b1101000 i"
b1101000 l"
b1101000 o"
b1101000 r"
b1101000 u"
b1101000 x"
#230
b11101000 "
b11101000 $
b11101000 c"
b11101000 f"
b11101000 i"
b11101000 l"
b11101000 o"
b11101000 r"
b11101000 u"
b11101000 x"
#240
b11000 "
b11000 $
b11000 c"
b11000 f"
b11000 i"
b11000 l"
b11000 o"
b11000 r"
b11000 u"
b11000 x"
#250
b10011000 "
b10011000 $
b10011000 c"
b10011000 f"
b10011000 i"
b10011000 l"
b10011000 o"
b10011000 r"
b10011000 u"
b10011000 x"
#260
b1011000 "
b1011000 $
b1011000 c"
b1011000 f"
b1011000 i"
b1011000 l"
b1011000 o"
b1011000 r"
b1011000 u"
b1011000 x"
#270
b11011000 "
b11011000 $
b11011000 c"
b11011000 f"
b11011000 i"
b11011000 l"
b11011000 o"
b11011000 r"
b11011000 u"
b11011000 x"
#280
b111000 "
b111000 $
b111000 c"
b111000 f"
b111000 i"
b111000 l"
b111000 o"
b111000 r"
b111000 u"
b111000 x"
#290
b10111000 "
b10111000 $
b10111000 c"
b10111000 f"
b10111000 i"
b10111000 l"
b10111000 o"
b10111000 r"
b10111000 u"
b10111000 x"
#300
b1111000 "
b1111000 $
b1111000 c"
b1111000 f"
b1111000 i"
b1111000 l"
b1111000 o"
b1111000 r"
b1111000 u"
b1111000 x"
#310
b11111000 "
b11111000 $
b11111000 c"
b11111000 f"
b11111000 i"
b11111000 l"
b11111000 o"
b11111000 r"
b11111000 u"
b11111000 x"
#320
b100 "
b100 $
b100 c"
b100 f"
b100 i"
b100 l"
b100 o"
b100 r"
b100 u"
b100 x"
#330
b10000100 "
b10000100 $
b10000100 c"
b10000100 f"
b10000100 i"
b10000100 l"
b10000100 o"
b10000100 r"
b10000100 u"
b10000100 x"
#340
b1000100 "
b1000100 $
b1000100 c"
b1000100 f"
b1000100 i"
b1000100 l"
b1000100 o"
b1000100 r"
b1000100 u"
b1000100 x"
#350
b11000100 "
b11000100 $
b11000100 c"
b11000100 f"
b11000100 i"
b11000100 l"
b11000100 o"
b11000100 r"
b11000100 u"
b11000100 x"
#360
b100100 "
b100100 $
b100100 c"
b100100 f"
b100100 i"
b100100 l"
b100100 o"
b100100 r"
b100100 u"
b100100 x"
#370
b10100100 "
b10100100 $
b10100100 c"
b10100100 f"
b10100100 i"
b10100100 l"
b10100100 o"
b10100100 r"
b10100100 u"
b10100100 x"
#380
b1100100 "
b1100100 $
b1100100 c"
b1100100 f"
b1100100 i"
b1100100 l"
b1100100 o"
b1100100 r"
b1100100 u"
b1100100 x"
#390
b11100100 "
b11100100 $
b11100100 c"
b11100100 f"
b11100100 i"
b11100100 l"
b11100100 o"
b11100100 r"
b11100100 u"
b11100100 x"
#400
b10100 "
b10100 $
b10100 c"
b10100 f"
b10100 i"
b10100 l"
b10100 o"
b10100 r"
b10100 u"
b10100 x"
#410
b10010100 "
b10010100 $
b10010100 c"
b10010100 f"
b10010100 i"
b10010100 l"
b10010100 o"
b10010100 r"
b10010100 u"
b10010100 x"
#420
b1010100 "
b1010100 $
b1010100 c"
b1010100 f"
b1010100 i"
b1010100 l"
b1010100 o"
b1010100 r"
b1010100 u"
b1010100 x"
#430
b11010100 "
b11010100 $
b11010100 c"
b11010100 f"
b11010100 i"
b11010100 l"
b11010100 o"
b11010100 r"
b11010100 u"
b11010100 x"
#440
b110100 "
b110100 $
b110100 c"
b110100 f"
b110100 i"
b110100 l"
b110100 o"
b110100 r"
b110100 u"
b110100 x"
#450
b10110100 "
b10110100 $
b10110100 c"
b10110100 f"
b10110100 i"
b10110100 l"
b10110100 o"
b10110100 r"
b10110100 u"
b10110100 x"
#460
b1110100 "
b1110100 $
b1110100 c"
b1110100 f"
b1110100 i"
b1110100 l"
b1110100 o"
b1110100 r"
b1110100 u"
b1110100 x"
#470
b11110100 "
b11110100 $
b11110100 c"
b11110100 f"
b11110100 i"
b11110100 l"
b11110100 o"
b11110100 r"
b11110100 u"
b11110100 x"
#480
b1100 "
b1100 $
b1100 c"
b1100 f"
b1100 i"
b1100 l"
b1100 o"
b1100 r"
b1100 u"
b1100 x"
#490
b10001100 "
b10001100 $
b10001100 c"
b10001100 f"
b10001100 i"
b10001100 l"
b10001100 o"
b10001100 r"
b10001100 u"
b10001100 x"
#500
b1001100 "
b1001100 $
b1001100 c"
b1001100 f"
b1001100 i"
b1001100 l"
b1001100 o"
b1001100 r"
b1001100 u"
b1001100 x"
#510
b11001100 "
b11001100 $
b11001100 c"
b11001100 f"
b11001100 i"
b11001100 l"
b11001100 o"
b11001100 r"
b11001100 u"
b11001100 x"
#520
b101100 "
b101100 $
b101100 c"
b101100 f"
b101100 i"
b101100 l"
b101100 o"
b101100 r"
b101100 u"
b101100 x"
#530
b10101100 "
b10101100 $
b10101100 c"
b10101100 f"
b10101100 i"
b10101100 l"
b10101100 o"
b10101100 r"
b10101100 u"
b10101100 x"
#540
b1101100 "
b1101100 $
b1101100 c"
b1101100 f"
b1101100 i"
b1101100 l"
b1101100 o"
b1101100 r"
b1101100 u"
b1101100 x"
#550
b11101100 "
b11101100 $
b11101100 c"
b11101100 f"
b11101100 i"
b11101100 l"
b11101100 o"
b11101100 r"
b11101100 u"
b11101100 x"
#560
b11100 "
b11100 $
b11100 c"
b11100 f"
b11100 i"
b11100 l"
b11100 o"
b11100 r"
b11100 u"
b11100 x"
#570
b10011100 "
b10011100 $
b10011100 c"
b10011100 f"
b10011100 i"
b10011100 l"
b10011100 o"
b10011100 r"
b10011100 u"
b10011100 x"
#580
b1011100 "
b1011100 $
b1011100 c"
b1011100 f"
b1011100 i"
b1011100 l"
b1011100 o"
b1011100 r"
b1011100 u"
b1011100 x"
#590
b11011100 "
b11011100 $
b11011100 c"
b11011100 f"
b11011100 i"
b11011100 l"
b11011100 o"
b11011100 r"
b11011100 u"
b11011100 x"
#600
b111100 "
b111100 $
b111100 c"
b111100 f"
b111100 i"
b111100 l"
b111100 o"
b111100 r"
b111100 u"
b111100 x"
#610
b10111100 "
b10111100 $
b10111100 c"
b10111100 f"
b10111100 i"
b10111100 l"
b10111100 o"
b10111100 r"
b10111100 u"
b10111100 x"
#620
b1111100 "
b1111100 $
b1111100 c"
b1111100 f"
b1111100 i"
b1111100 l"
b1111100 o"
b1111100 r"
b1111100 u"
b1111100 x"
#630
b11111100 "
b11111100 $
b11111100 c"
b11111100 f"
b11111100 i"
b11111100 l"
b11111100 o"
b11111100 r"
b11111100 u"
b11111100 x"
#640
b10 "
b10 $
b10 c"
b10 f"
b10 i"
b10 l"
b10 o"
b10 r"
b10 u"
b10 x"
#650
b10000010 "
b10000010 $
b10000010 c"
b10000010 f"
b10000010 i"
b10000010 l"
b10000010 o"
b10000010 r"
b10000010 u"
b10000010 x"
